epochs, train_loss, val_loss, train_acc, val_acc, augmentation_strengths
1, 0.547146, 0.226144, 84.386980, 92.990690, 0
2, 0.257360, 0.145492, 93.450598, 96.032010, 0
3, 0.164305, 0.128868, 96.004762, 96.523140, 0
4, 0.133534, 0.103976, 96.779873, 96.906887, 0
5, 0.110198, 0.101121, 97.306433, 97.037876, 0
6, 0.109986, 0.070595, 97.302398, 98.060354, 0
7, 0.089033, 0.066485, 97.819143, 98.049360, 0
8, 0.085402, 0.064087, 97.922457, 98.167558, 0
9, 0.078194, 0.060709, 98.104492, 98.281618, 0
10, 0.070461, 0.053673, 98.253757, 98.499356, 0
11, 0.069820, 0.052740, 98.271081, 98.500731, 0
12, 0.063933, 0.048979, 98.424204, 98.670659, 0
13, 0.067792, 0.076181, 98.332850, 97.870197, 0
14, 0.060118, 0.049781, 98.505057, 98.651574, 0
15, 0.054772, 0.044649, 98.622827, 98.771621, 0
16, 0.050725, 0.046986, 98.705890, 98.631888, 0
17, 0.050698, 0.039958, 98.747030, 98.977245, 0
18, 0.053930, 0.047493, 98.625917, 98.714112, 0
19, 0.042316, 0.038418, 98.901652, 98.923978, 0
20, 0.042781, 0.040766, 98.885768, 98.816692, 0
21, 0.059919, 0.043739, 98.525236, 98.872907, 0
22, 0.045353, 0.037998, 98.854177, 99.016791, 0
23, 0.038883, 0.038974, 98.985002, 98.955235, 0
24, 0.045349, 0.076327, 98.874023, 98.553363, 0
25, 0.039238, 0.043412, 98.988652, 98.928556, 0
26, 0.035139, 0.034813, 99.069271, 98.993614, 0
27, 0.041436, 0.034604, 98.929399, 99.059099, 0
28, 0.044376, 0.039369, 98.851433, 98.936983, 0
29, 0.039467, 0.034985, 98.981130, 99.063365, 0
30, 0.034538, 0.034879, 99.087488, 99.094449, 0
31, 0.043756, 0.039240, 98.877413, 98.977638, 0
32, 0.034635, 0.033723, 99.084633, 99.119522, 0
33, 0.038995, 0.041587, 98.989004, 98.950866, 0
34, 0.032972, 0.032099, 99.122749, 99.150941, 0
35, 0.030538, 0.032145, 99.181292, 99.134700, 0
36, 0.038652, 0.031940, 99.003304, 99.156917, 0
37, 0.040923, 0.035035, 98.927065, 99.142109, 0
38, 0.030168, 0.032512, 99.191245, 99.230691, 0
39, 0.033311, 0.030555, 99.121557, 99.197122, 0
40, 0.029142, 0.032664, 99.216351, 99.244181, 0
41, 0.037331, 0.030759, 99.103378, 99.167656, 0
42, 0.028215, 0.030180, 99.241021, 99.264480, 0
43, 0.032968, 0.032291, 99.146435, 99.121822, 0
44, 0.028043, 0.029048, 99.249957, 99.282687, 0
45, 0.026867, 0.030639, 99.275839, 99.276814, 0
46, 0.026654, 0.054924, 99.283368, 98.475971, 0
47, 0.036442, 0.027967, 99.101410, 99.307667, 0
48, 0.025515, 0.028365, 99.310253, 99.306245, 0
49, 0.025201, 0.028042, 99.318381, 99.302269, 0
50, 0.034384, 0.031191, 99.117509, 99.201364, 0
51, 0.026147, 0.028602, 99.303442, 99.282987, 0
52, 0.024601, 0.027108, 99.335151, 99.262584, 0
53, 0.040537, 0.029043, 98.989753, 99.289368, 0
54, 0.025378, 0.030005, 99.318192, 99.296951, 0
55, 0.024241, 0.029266, 99.343918, 99.275115, 0
56, 0.030968, 0.028611, 99.191825, 99.332185, 0
57, 0.023606, 0.029857, 99.359847, 99.287461, 0
58, 0.040983, 0.030100, 99.018614, 99.198012, 0
59, 0.025872, 0.028413, 99.310260, 99.320163, 0
60, 0.023476, 0.030926, 99.363784, 99.286952, 0
61, 0.028047, 0.027989, 99.259024, 99.297287, 0
62, 0.023197, 0.031931, 99.370810, 99.285149, 0
63, 0.022827, 0.033001, 99.378593, 99.292894, 0
64, 0.039208, 0.032121, 99.042750, 99.212727, 0
65, 0.025021, 0.027860, 99.333209, 99.329908, 0
66, 0.022745, 0.029764, 99.381434, 99.305771, 0
67, 0.025442, 0.027500, 99.319861, 99.330081, 0
68, 0.022655, 0.023915, 99.384478, 99.337237, 0
69, 0.025187, 0.028183, 99.327343, 99.306303, 0
70, 0.022655, 0.029189, 99.385169, 99.361246, 0
71, 0.021691, 0.029250, 99.407401, 99.331318, 0
72, 0.021839, 0.033920, 99.402963, 99.328798, 0
73, 0.021677, 0.032929, 99.407356, 99.316846, 0
74, 0.030694, 0.027502, 99.218685, 99.393764, 0
75, 0.021372, 0.029421, 99.416148, 99.391822, 0
76, 0.021018, 0.033916, 99.423943, 99.380597, 0
77, 0.025344, 0.031841, 99.328940, 99.214519, 0
78, 0.026413, 0.027779, 99.307842, 99.377233, 0
79, 0.020977, 0.030510, 99.425847, 99.390897, 0
80, 0.020618, 0.033650, 99.434711, 99.358726, 0
81, 0.027143, 0.028625, 99.310358, 99.247233, 0
82, 0.023216, 0.029896, 99.375392, 99.360148, 0
83, 0.020589, 0.031690, 99.435936, 99.353374, 0
84, 0.020374, 0.029783, 99.440551, 99.380539, 0
85, 0.020497, 0.033885, 99.437051, 99.379037, 0
86, 0.020447, 0.034392, 99.438191, 99.406595, 0
87, 0.023075, 0.035202, 99.378469, 99.272815, 0
88, 0.020649, 0.032779, 99.436001, 99.402826, 0
89, 0.019914, 0.032962, 99.452329, 99.389926, 0
90, 0.019933, 0.035887, 99.451559, 99.404676, 0
91, 0.021650, 0.058686, 99.431191, 98.170564, 0
92, 0.023323, 0.032388, 99.376976, 99.390596, 0
93, 0.019586, 0.035533, 99.462392, 99.408606, 0
94, 0.019455, 0.036563, 99.464380, 99.438037, 0
95, 0.019540, 0.039349, 99.462020, 99.410849, 0
96, 0.029539, 0.026506, 99.284111, 99.363454, 0
97, 0.019859, 0.032458, 99.459602, 99.426501, 0
98, 0.019219, 0.035847, 99.472214, 99.426189, 0
99, 0.019256, 0.038468, 99.469861, 99.429136, 0
100, 0.023629, 0.030416, 99.368614, 99.434384, 0
