class, class occurred in gt, accuracy %, precision, mean iou, dice coefficient, true positives ratio, true negatives ratio, false positives ratio, false negatives ratio, pixels, % of all pixels
0, Yes, 99.396, 0.99837, 0.99222, 0.99610, 0.99383, 0.99441, 0.00559, 0.00617, 47440190, 77.530
1, Yes, 99.396, 0.97904, 0.97369, 0.98667, 0.99441, 0.99383, 0.00617, 0.00559, 13748930, 22.470
